Gathering data (wide to long) in the tidyverse | Chris Beeley's blog
…
This does not work! I don’t know why I think it does! What do I think is going to happen to the ID column? It’s just going to magically go away?

I DON’T KNOW WHY I’M SO BAD AT THIS.

It’s going to gather the whole dataframe, and you just end up with a huge mess. The other thing to say is, and I have started to get the hang of this, but just in case. THE KEY AND VALUE ARGUMENTS YOU JUST MAKE UP. THEY ARE *NOT* RELATED TO THE NAMES OF THE DATAFRAME AT ALL.

What you actually do is get JUST THE VARIABLES YOU WANT, and then you need to decide whether you want any other variables, but not gather them. So as a concrete example, let’s say you want to gather Q1 – Q3 and keep the ID column. You want to put the ID column in, but you don’t want to GATHER it. So you put it in the select statement, but use -ID in the gather statement:

<pre class="brush: r; title: ; notranslate" title="">

testData %>%
  select(ID : Q3) %>%
  gather(key = Question, value = Score, -ID)

# A tibble: 30 x 3
  ID Question Score
  <int> <chr> <dbl>
 1 1 Q1 0.26001265
 2 2 Q1 0.34674771
 3 3 Q1 0.43080742
 4 4 Q1 0.28397929
 5 5 Q1 0.14545496
 6 6 Q1 0.63496928
 7 7 Q1 0.78777785
 8 8 Q1 0.44622476
 9 9 Q1 0.86785324
10 10 Q1 0.02611436
# ... with 20 more rows

Or if you don’t want the ID column (not doing anything useful in this particular, made up, case):

<pre class="brush: r; title: ; notranslate" title="">

testData %>%
  select(Q1 : Q3) %>%
  gather(key = Question, value = Score, Q1 : Q3)

# A tibble: 30 x 2
  Question Score
  <chr> <dbl>
 1 Q1 0.26001265
 2 Q1 0.34674771
 3 Q1 0.43080742
 4 Q1 0.28397929
 5 Q1 0.14545496
 6 Q1 0.63496928
 7 Q1 0.78777785
 8 Q1 0.44622476
 9 Q1 0.86785324
10 Q1 0.02611436
# ... with 20 more rows
…
